1;'android';1;NULL
2;'freebsd';1;NULL
3;'freebsd 9';1;2
4;'ios';1;NULL
5;'linux';1;NULL
6;'alpine';1;5
7;'altlinux';1;5
8;'arch linux';1;5
9;'astra';1;5
10;'centos';1;5
11;'coreos';1;5
12;'debian';1;5
13;'embedded linux';1;5
14;'fedora';1;5
15;'gentoo';1;5
16;'mandriva';1;5
17;'manjaro';1;5
18;'mint';1;5
19;'opensuse';1;5
20;'openwrt';1;5
21;'oracle (os)';1;5
22;'oracle enterprise linux';1;21
23;'unbreakable linux';1;21
24;'oel';1;21
25;'red hat';1;5
26;'red hat 7';1;25
27;'red hat 9';1;25
28;'red hat enterprise linux';1;5
29;'rhel';1;28
30;'rhel 4.6';1;29
31;'suse linux';1;5
32;'suse linux enterprise server';1;5
33;'sles';1;32
34;'ubuntu';1;5
35;'ubuntu 14';1;34
36;'ubuntu 14.04';1;35
37;'ubuntu 14.10';1;35
38;'ubuntu 15';1;34
39;'ubuntu 15.04';1;38
40;'ubuntu 15.10';1;38
41;'ubuntu 16';1;34
42;'ubuntu 16.04';1;41
43;'ubuntu 16.10';1;41
44;'ubuntu 17';1;34
45;'ubuntu 17.04';1;44
46;'ubuntu 17.10';1;44
47;'ubuntu 18';1;34
48;'ubuntu 18.04';1;47
49;'ubuntu 18.10';1;47
50;'ubuntu 19';1;34
51;'ubuntu 19.04';1;50
52;'ubuntu 19.10';1;50
53;'ubuntu 20';1;34
54;'ubuntu 20.04';1;53
55;'ubuntu 20.10';1;53
56;'ubuntu server';1;5
57;'ms-dos';1;NULL
58;'qnx';1;NULL
59;'redoxos';1;NULL
60;'rtems';1;NULL
61;'symbian os';1;NULL
62;'unix';1;NULL
63;'aix';1;62
64;'aix 6.2';1;63
65;'bsd';1;62
66;'openbsd';1;65
67;'hp-ux';1;62
68;'hp-ux 11.00';1;67
69;'mac os x';1;62
70;'macos';1;62
71;'macos 10.23 sierra';1;70
72;'os x';1;62
73;'os x 10.6 snow leopard';1;72
74;'os x 10.7 lion';1;72
75;'os x 10.9 marvericks';1;72
76;'os x 10.10 yosemite';1;72
77;'solaris';1;62
78;'solaris 10';1;77
79;'windows';1;NULL
80;'windows 9x';1;79
81;'windows 95';1;80
82;'windows me';1;80
83;'windows ce';1;79
84;'windows mobile';1;79
85;'windows nt';1;79
86;'windows 2000';1;85
87;'windows xp';1;85
88;'windows vista';1;85
89;'windows 7';1;85
90;'windows 8';1;85
91;'windows 8.1';1;85
92;'windows 10';1;85
93;'windows phone';1;79
94;'windows server';1;79
95;'windows 2000 server';1;94
96;'windows server 2003';1;94
97;'windows server 2008';1;94
98;'windows server 2008 r2';1;97
99;'windows server 2012';1;94
100;'windows server 2012 r2';1;99
101;'windows server 2016';1;94
102;'windows server 2019';1;94
103;'ldap query language';2;NULL
104;'asp classic';2;NULL
105;'asp classic 3.0';2;104
106;'python';2;NULL
107;'python 2.7';2;106
108;'python 3';2;106
109;'jython';2;106
110;'cython';2;106
111;'ironpython';2;106
112;'pypy';2;106
113;'stackless python';2;106
114;'visual basic .net';2;NULL
115;'assembler';2;NULL
116;'x86 assembly';2;115
117;'sass';2;NULL
118;'vbscript';2;NULL
119;'object pascal';2;NULL
120;'sh';2;NULL
121;'elixir';2;NULL
122;'go';2;NULL
123;'ixbrl';2;NULL
124;'xsd';2;NULL
125;'applescript';2;NULL
126;'less';2;NULL
127;'isbl';2;NULL
128;'abap/4';2;NULL
129;'hlsl';2;NULL
130;'haskell';2;NULL
131;'actionscript';2;NULL
132;'actionscript 3.0';2;131
133;'lisp';2;NULL
134;'clojure';2;133
135;'javascript';2;NULL
136;'ruby';2;NULL
137;'rust';2;NULL
138;'coffeescript';2;NULL
139;'clipper';2;NULL
140;'css';2;NULL
141;'css3';2;140
142;'x++';2;NULL
143;'xsl';2;NULL
144;'uml';2;NULL
145;'wsdl';2;NULL
146;'mdx';2;NULL
147;'kotlin';2;NULL
148;'vhdl';2;NULL
149;'yaml';2;NULL
150;'cuda c';2;NULL
151;'groovy';2;NULL
152;'swift';2;NULL
153;'dart';2;NULL
154;'regex';2;NULL
155;'awk';2;NULL
156;'c';2;NULL
157;'c++';2;NULL
158;'php';2;NULL
159;'php 5.4-7.2';2;158
160;'typescript';2;NULL
161;'vba';2;NULL
162;'f#';2;NULL
163;'html';2;NULL
164;'html5';2;163
165;'pascal';2;NULL
166;'shell script';2;NULL
167;'lua';2;NULL
168;'c#';2;NULL
169;'elm';2;NULL
170;'xpath';2;NULL
171;'java';2;NULL
172;'xslt';2;NULL
173;'riatest script';2;NULL
174;'octave';2;NULL
175;'xquery';2;NULL
176;'scala';2;NULL
177;'visual basic';2;NULL
178;'vb6';2;177
179;'scss';2;NULL
180;'sql';2;NULL
181;'pl/pgsql';2;180
182;'generic sql';2;180
183;'hql';2;180
184;'t-sql';2;180
185;'prolog';2;NULL
186;'xml';2;NULL
187;'objective-c';2;NULL
188;'perl';2;NULL
189;'erlang';2;NULL
190;'ecmascript';3;NULL
191;'es7';3;190
192;'es6';3;190
193;'es5';3;190
194;'es3';3;190
195;'eslint';3;190
196;'ppm';3;NULL
197;'gdbserver';3;NULL
198;'aws codecommit';3;NULL
199;'9rays';3;NULL
200;'grunt';3;NULL
201;'upsource';3;NULL
202;'cppcheck';3;NULL
203;'valgrind';3;NULL
204;'mondrian';3;NULL
205;'dts';3;NULL
206;'citrix xen';3;NULL
207;'solaris zones';3;NULL
208;'fastreports';3;NULL
209;'orcad';3;NULL
210;'invision';3;NULL
211;'intouch';3;NULL
212;'dbeauty';3;NULL
213;'oracle';3;NULL
214;'oracle warehouse builder';3;213
215;'oracle apex';3;213
216;'oracle bpm';3;213
217;'oracle bi';3;213
218;'oracle reports';3;213
219;'zeplin';3;NULL
220;'fiddler';3;NULL
221;'xilinx ise';3;NULL
222;'gdb';3;NULL
223;'assembla';3;NULL
224;'github';3;NULL
225;'bitbucket';3;NULL
226;'lodash';3;NULL
227;'marionette.js';3;NULL
228;'less.js';3;NULL
229;'three.js';3;NULL
230;'pixijs';3;NULL
231;'commonjs';3;NULL
232;'jsp';3;NULL
233;'dhtml';3;NULL
234;'gwt';3;NULL
235;'eclipse rpc';3;NULL
236;'figma';3;NULL
237;'semantic ui';3;NULL
238;'yoomla';3;NULL
239;'autoprefixer';3;NULL
240;'babel';3;NULL
241;'websockets';3;NULL
242;'swt';3;NULL
243;'chart.js';3;NULL
244;'flexible layout';3;NULL
245;'rx observable';3;NULL
246;'tml';3;NULL
247;'recompose';3;NULL
248;'howler.js';3;NULL
249;'js modules';3;NULL
250;'angular';3;NULL
251;'ngrx';3;250
252;'angular light';3;250
253;'angular material';3;250
254;'angular 1';3;250
255;'angular 2';3;250
256;'angular 3';3;250
257;'angular 4';3;250
258;'angular 5';3;250
259;'angular 6';3;250
260;'angular 7';3;250
261;'canvas';3;NULL
262;'susy';3;NULL
263;'svg-sprites';3;NULL
264;'ext.js';3;NULL
265;'kendoui';3;NULL
266;'telerik';3;NULL
267;'axis';3;NULL
268;'swing gui';3;NULL
269;'devexpress web ui';3;NULL
270;'nvd3';3;NULL
271;'alt';3;NULL
272;'yandex';3;NULL
273;'yandex payment';3;272
274;'yandex api';3;272
275;'yandex maps api';3;272
276;'sinon.js';3;NULL
277;'adobe photoshop';3;NULL
278;'indexeddb';3;NULL
279;'jade';3;NULL
280;'underscorejs';3;NULL
281;'node.js';3;NULL
282;'node-gyp';3;281
283;'npm';3;281
284;'node.js express';3;281
285;'node-mongodb-native';3;281
286;'node.js cluster';3;281
287;'nw.js';3;NULL
288;'amd';3;NULL
289;'browser-sync';3;NULL
290;'jsx';3;NULL
291;'baobab';3;NULL
292;'primefaces';3;NULL
293;'underscore.js';3;NULL
294;'yarn';3;NULL
295;'meteor';3;NULL
296;'axios';3;NULL
297;'css3 animations';3;NULL
298;'mocha';3;NULL
299;'scc3';3;NULL
300;'polyfills';3;NULL
301;'extjs3';3;NULL
302;'jeet.gs';3;NULL
303;'winforms';3;NULL
304;'handsontable';3;NULL
305;'backbone.js';3;NULL
306;'phaserjs';3;NULL
307;'flux';3;NULL
308;'socketio';3;NULL
309;'kogrid';3;NULL
310;'jshint';3;NULL
311;'oocss';3;NULL
312;'velocity';3;NULL
313;'konva.js';3;NULL
314;'css-in-js';3;NULL
315;'phonegap';3;NULL
316;'maps';3;NULL
317;'social networks apis';3;NULL
318;'icefaces';3;NULL
319;'ext js';3;NULL
320;'restangular';3;NULL
321;'jointjs';3;NULL
322;'protractor';3;NULL
323;'websocket';3;NULL
324;'svg';3;NULL
325;'pixel perfect';3;NULL
326;'boost';3;NULL
327;'ejs';3;NULL
328;'mithril.js';3;NULL
329;'rxobservable';3;NULL
330;'bootsrap';3;NULL
331;'templating';3;NULL
332;'karma';3;NULL
333;'ajax';3;NULL
334;'localstorage';3;NULL
335;'sizzle';3;NULL
336;'polymer';3;NULL
337;'kendo';3;NULL
338;'handlebars.js';3;NULL
339;'protobuf';3;NULL
340;'rxjs';3;NULL
341;'bower';3;NULL
342;'redux';3;NULL
343;'redux-saga';3;342
344;'redux-thunk';3;342
345;'backbonejs';3;NULL
346;'vanilla.js';3;NULL
347;'underscore';3;NULL
348;'pug';3;NULL
349;'jasmine';3;NULL
350;'gimp';3;NULL
351;'jss';3;NULL
352;'webtranslateit';3;NULL
353;'templating engines';3;NULL
354;'http';3;NULL
355;'knockoutjs';3;NULL
356;'adobe illustrator';3;NULL
357;'webrtc';3;NULL
358;'knockout';3;NULL
359;'graphics';3;NULL
360;'extjs 4.1';3;NULL
361;'haml';3;NULL
362;'vue.js';3;NULL
363;'vue.js 2';3;362
364;'qml';3;NULL
365;'semantic markup';3;NULL
366;'google';3;NULL
367;'google maps api';3;366
368;'google maps api v2';3;367
369;'google api';3;366
370;'google analytics';3;366
371;'google closure';3;366
372;'google protobuf';3;366
373;'google data api';3;366
374;'google cloud';3;366
375;'google cloud cluster';3;374
376;'google cloud message';3;374
377;'google firebase';3;366
378;'google big query';3;366
379;'google serivices';3;366
380;'google adwords';3;366
381;'google plus sdk';3;366
382;'google places';3;366
383;'google play services';3;366
384;'google plus';3;366
385;'google test';3;366
386;'google web toolkit';3;366
387;'prettier';3;NULL
388;'reselect';3;NULL
389;'browserify';3;NULL
390;'nunjucks';3;NULL
391;'responsive layout';3;NULL
392;'jqgrid';3;NULL
393;'prototype';3;NULL
394;'slim';3;NULL
395;'phantomjs';3;NULL
396;'coffescript';3;NULL
397;'telerik asp.net ajax';3;NULL
398;'webworker';3;NULL
399;'template engines';3;NULL
400;'raphaeljs';3;NULL
401;'javascriprt';3;NULL
402;'photoshop';3;NULL
403;'styled-components';3;NULL
404;'karmajs';3;NULL
405;'chai';3;NULL
406;'qt';3;NULL
407;'qt 5x';3;406
408;'qt toolkit';3;406
409;'qt creator';3;406
410;'qt creator 5';3;409
411;'smacss';3;NULL
412;'qunit';3;NULL
413;'silverlight';3;NULL
414;'haml slim';3;NULL
415;'webpack';3;NULL
416;'struts';3;NULL
417;'vuetify';3;NULL
418;'comet';3;NULL
419;'jsxgraph';3;NULL
420;'socket.io';3;NULL
421;'underscore less';3;NULL
422;'mambo';3;NULL
423;'adobe flash';3;NULL
424;'xna';3;NULL
425;'extjs';3;NULL
426;'sencha';3;NULL
427;'swing';3;NULL
428;'devexpress';3;NULL
429;'jstl';3;NULL
430;'jest';3;NULL
431;'extgwt';3;NULL
432;'twig';3;NULL
433;'sketch';3;NULL
434;'wpf';3;NULL
435;'webgl';3;NULL
436;'web sockets';3;NULL
437;'gulp';3;NULL
438;'sencha touch';3;NULL
439;'styled components';3;NULL
440;'sap ui5';3;NULL
441;'requirejs';3;NULL
442;'json';3;NULL
443;'rx.js';3;NULL
444;'xml-rpc';3;NULL
445;'gxt';3;NULL
446;'jfs';3;NULL
447;'webassembly';3;NULL
448;'paintcode';3;NULL
449;'spring mvc';3;NULL
450;'fitnesse';3;NULL
451;'dojo';3;NULL
452;'knockout js';3;NULL
453;'action script 3.0';3;NULL
454;'javascriptcore';3;NULL
455;'mobx';3;NULL
456;'stl';3;NULL
457;'mapbox';3;NULL
458;'css modules';3;NULL
459;'snap svg';3;NULL
460;'fable';3;NULL
461;'joosy';3;NULL
462;'cs-cart';3;NULL
463;'a-frame';3;NULL
464;'express.js';3;NULL
465;'bem';3;NULL
466;'xhtml';3;NULL
467;'graphql';3;NULL
468;'vuex';3;NULL
469;'media queries';3;NULL
470;'erb';3;NULL
471;'bulma';3;NULL
472;'postcss';3;NULL
473;'select2';3;NULL
474;'stylus';3;NULL
475;'javascriptmvc';3;NULL
476;'adobe flex';3;NULL
477;'material-ui';3;NULL
478;'flow';3;NULL
479;'ember.js';3;NULL
480;'bootstrap';3;NULL
481;'bootstrap 4';3;480
482;'bootstrap 3.0';3;480
483;'semanticui';3;NULL
484;'systemjs';3;NULL
485;'stylelint';3;NULL
486;'vaadin';3;NULL
487;'es.next';3;NULL
488;'flex';3;NULL
489;'handlebars';3;NULL
490;'jquery';3;NULL
491;'jquery mobile';3;490
492;'jquery ajax';3;490
493;'jquery ui';3;490
494;'javascrtipt';3;NULL
495;'fetch';3;NULL
496;'linqjs';3;NULL
497;'microsoft visio';3;NULL
498;'mootools';3;NULL
499;'opencart';3;NULL
500;'marionette';3;NULL
501;'ext-js';3;NULL
502;'jsf';3;NULL
503;'immutable';3;NULL
504;'reactjs';3;NULL
505;'react storybook';3;504
506;'react-router';3;504
507;'react 16';3;504
508;'react native';3;504
509;'backbone';3;NULL
510;'moment.js';3;NULL
511;'knockout.js';3;NULL
512;'lodash.js';3;NULL
513;'chrome devtools';3;NULL
514;'lightspeed';3;NULL
515;'spss';3;NULL
516;'rhino.mocks';3;NULL
517;'ajax extension';3;NULL
518;'xhprof';3;NULL
519;'propel';3;NULL
520;'laravel5';3;NULL
521;'icinga';3;NULL
522;'xctest';3;NULL
523;'async';3;NULL
524;'video.js';3;NULL
525;'jdo';3;NULL
526;'opencover';3;NULL
527;'petsc';3;NULL
528;'ef codefirst';3;NULL
529;'tensorflow';3;NULL
530;'jail';3;NULL
531;'modx';3;NULL
532;'express';3;NULL
533;'pika';3;NULL
534;'jboss narayana';3;NULL
535;'kettle';3;NULL
536;'web services jax-ws';3;NULL
537;'spring cloud';3;NULL
538;'spa';3;NULL
539;'codeigniter';3;NULL
540;'enterprise library';3;NULL
541;'grape';3;NULL
542;'ado.net 2.0';3;NULL
543;'ants';3;NULL
544;'adc';3;NULL
545;'exim4';3;NULL
546;'drupal 7';3;NULL
547;'openstack4j';3;NULL
548;'oop';3;NULL
549;'unitycontainer';3;NULL
550;'gridle css framework';3;NULL
551;'jta';3;NULL
552;'assertj';3;NULL
553;'jboss';3;NULL
554;'roslyn';3;NULL
555;'scala play';3;NULL
556;'lingtoxmlaop';3;NULL
557;'graphite';3;NULL
558;'amazon';3;NULL
559;'opennebula';3;NULL
560;'event sourcing';3;NULL
561;'nio';3;NULL
562;'dompdf';3;NULL
563;'mq';3;NULL
564;'itext';3;NULL
565;'jax-ws';3;NULL
566;'jgroups 3.1';3;NULL
567;'fakeiteasy';3;NULL
568;'episerver';3;NULL
569;'.net reflections';3;NULL
570;'okhttp';3;NULL
571;'html canvas';3;NULL
572;'exchange api';3;NULL
573;'mindscape lightspeed';3;NULL
574;'sailsjs';3;NULL
575;'pyjwt';3;NULL
576;'.nettiers';3;NULL
577;'bdc';3;NULL
578;'sqlalchemy';3;NULL
579;'pentaho';3;NULL
580;'etree';3;NULL
581;'octopus';3;NULL
582;'nosetests';3;NULL
583;'dagger';3;NULL
584;'speech recognition';3;NULL
585;'unreal engine 4';3;NULL
586;'quartzcore';3;NULL
587;'swagger';3;NULL
588;'spring security';3;NULL
589;'instruments';3;NULL
590;'jmc';3;NULL
591;'activerecord';3;NULL
592;'prism';3;NULL
593;'expressiontree';3;NULL
594;'customatizations';3;NULL
595;'modbus';3;NULL
596;'room';3;NULL
597;'opencv';3;NULL
598;'spring aop';3;NULL
599;'nservicebus';3;NULL
600;'spring oxm';3;NULL
601;'liquidbase';3;NULL
602;'cxf';3;NULL
603;'connect';3;NULL
604;'asp.net web forms';3;NULL
605;'siteprism';3;NULL
606;'mfc';3;NULL
607;'crystal reports';3;NULL
608;'activemq';3;NULL
609;'tibco ems';3;NULL
610;'itil foundation';3;NULL
611;'admob';3;NULL
612;'cloudwatch';3;NULL
613;'storage';3;NULL
614;'ibm websphere as';3;NULL
615;'xmlhttprequest';3;NULL
616;'cglib';3;NULL
617;'parallel collections';3;NULL
618;'event hub';3;NULL
619;'fluentassertions';3;NULL
620;'scriplets';3;NULL
621;'butterknife';3;NULL
622;'open acc';3;NULL
623;'flash';3;NULL
624;'in app billing';3;NULL
625;'jsdoc';3;NULL
626;'atomikos';3;NULL
627;'mikrotik';3;NULL
628;'unity 3d';3;NULL
629;'pandas';3;NULL
630;'reek';3;NULL
631;'okr';3;NULL
632;'ponyorm';3;NULL
633;'iec1142';3;NULL
634;'mse';3;NULL
635;'servlet';3;NULL
636;'olap';3;NULL
637;'dbi';3;NULL
638;'openjpa';3;NULL
639;'paperclip';3;NULL
640;'cppunit';3;NULL
641;'flyway migrator';3;NULL
642;'bl toolkit';3;NULL
643;'paas';3;NULL
644;'coredata';3;NULL
645;'pmi';3;NULL
646;'stm8';3;NULL
647;'symfony';3;NULL
648;'symfony 2';3;647
649;'symfony 3';3;647
650;'symfony 4';3;647
651;'express js';3;NULL
652;'jsonp';3;NULL
653;'tinixml';3;NULL
654;'statsd';3;NULL
655;'restful';3;NULL
656;'restful api';3;655
657;'objection';3;NULL
658;'msp430';3;NULL
659;'aiohttp-apiset';3;NULL
660;'vcl';3;NULL
661;'bltoolkit';3;NULL
662;'avfoundation';3;NULL
663;'zend';3;NULL
664;'mapserver';3;NULL
665;'ms testing framework';3;NULL
666;'fast reports';3;NULL
667;'amazon ec2 cloud';3;NULL
668;'gson';3;NULL
669;'vuforia';3;NULL
670;'hangfire';3;NULL
671;'pop';3;NULL
672;'social networks';3;NULL
673;'pear';3;NULL
674;'wms';3;NULL
675;'pgi compiler';3;NULL
676;'libev';3;NULL
677;'codeception 2';3;NULL
678;'dns';3;NULL
679;'arquillian';3;NULL
680;'yii';3;NULL
681;'yii 1';3;680
682;'yii-orm';3;680
683;'yii 2';3;680
684;'yii 1.1';3;680
685;'rup';3;NULL
686;'glib-2.x';3;NULL
687;'flyway';3;NULL
688;'cocos2d.';3;NULL
689;'propel orm';3;NULL
690;'retrofit';3;NULL
691;'eventbus';3;NULL
692;'cron';3;NULL
693;'jersey';3;NULL
694;'twitter';3;NULL
695;'spark';3;NULL
696;'logging';3;NULL
697;'jdk8';3;NULL
698;'dancer';3;NULL
699;'teleric justmock';3;NULL
700;'spring-boot';3;NULL
701;'java ee';3;NULL
702;'java 2 ee';3;701
703;'ejb';3;701
704;'ejb 3.0';3;703
705;'aws storage';3;NULL
706;'custom thread-pools';3;NULL
707;'sqs';3;NULL
708;'excel';3;NULL
709;'dapper';3;NULL
710;'keychain';3;NULL
711;'.net framework 4.5';3;NULL
712;'ninject';3;NULL
713;'fox toolkit';3;NULL
714;'arcgis';3;NULL
715;'cisco';3;NULL
716;'strongloop';3;NULL
717;'itextsharp';3;NULL
718;'lwp';3;NULL
719;'documentserver';3;NULL
720;'x-cart';3;NULL
721;'reportlab';3;NULL
722;'asp.net mvc 3';3;NULL
723;'orchard';3;NULL
724;'mapkit';3;NULL
725;'exchange server';3;NULL
726;'gatsby';3;NULL
727;'vmware esx';3;NULL
728;'.net framework';3;NULL
729;'fastreport';3;NULL
730;'winforms compact';3;NULL
731;'session storage';3;NULL
732;'realm database';3;NULL
733;'dcom';3;NULL
734;'mom';3;NULL
735;'active';3;NULL
736;'hdlc';3;NULL
737;'nosetest';3;NULL
738;'directcompute';3;NULL
739;'immutable.js';3;NULL
740;'generics';3;NULL
741;'spring framework';3;NULL
742;'ehlib';3;NULL
743;'selenium';3;NULL
744;'selenium 2';3;743
745;'selenium webdriver';3;743
746;'selenium rc';3;743
747;'xlrd';3;NULL
748;'build & deploy';3;NULL
749;'munin';3;NULL
750;'specflow';3;NULL
751;'atmel';3;NULL
752;'activepdf';3;NULL
753;'idef';3;NULL
754;'smokeping';3;NULL
755;'biztalk server';3;NULL
756;'didom';3;NULL
757;'job defnitions';3;NULL
758;'scipy';3;NULL
759;'aspectj';3;NULL
760;'jetty';3;NULL
761;'remoting';3;NULL
762;'long polling';3;NULL
763;'fluentvalidation';3;NULL
764;'installshield';3;NULL
765;'magento';3;NULL
766;'tddspry';3;NULL
767;'restkit';3;NULL
768;'vk';3;NULL
769;'autolayout';3;NULL
770;'for win';3;NULL
771;'cloud storage';3;NULL
772;'quick report';3;NULL
773;'breezejs';3;NULL
774;'restbus';3;NULL
775;'akka framework';3;NULL
776;'coreimage';3;NULL
777;'apigility';3;NULL
778;'libxml';3;NULL
779;'d-link';3;NULL
780;'fcm';3;NULL
781;'ef core';3;NULL
782;'php spl';3;NULL
783;'jwt';3;NULL
784;'web socket';3;NULL
785;'io.js';3;NULL
786;'pwa';3;NULL
787;'digital ocean';3;NULL
788;'rhino mock';3;NULL
789;'numpy';3;NULL
790;'apache';3;NULL
791;'apache2';3;790
792;'apacheds';3;790
793;'apache mods';3;790
794;'apache cordova';3;790
795;'apache wicket';3;790
796;'apache hadoop';3;790
797;'apache hdfs';3;790
798;'apache httpd';3;790
799;'apache http server';3;790
800;'apache solr';3;790
801;'apache camel';3;790
802;'apache velocity';3;790
803;'apache spark';3;790
804;'apache cxf';3;790
805;'apache torque';3;790
806;'apache poi';3;790
807;'apache mina';3;790
808;'apache mina deploy';3;807
809;'apache math 3.3';3;790
810;'apache cayenne';3;790
811;'apache activemq';3;790
812;'apache kafka';3;790
813;'apache jooq';3;790
814;'apache tomcat';3;790
815;'apache siege';3;790
816;'apache thrift';3;790
817;'apache commons';3;790
818;'akka http';3;NULL
819;'zend framework';3;NULL
820;'lambda';3;NULL
821;'cake pattern';3;NULL
822;'streams';3;NULL
823;'ion protocol';3;NULL
824;'gd library';3;NULL
825;'microsoft reporting';3;NULL
826;'junit 5';3;NULL
827;'spring social';3;NULL
828;'asp.net core';3;NULL
829;'resco';3;NULL
830;'audio fingerprints';3;NULL
831;'oltp';3;NULL
832;'phaser.io';3;NULL
833;'clearquest';3;NULL
834;'java2se';3;NULL
835;'jsonrpc';3;NULL
836;'retrofit 2';3;NULL
837;'rubocop';3;NULL
838;'vexor.io';3;NULL
839;'xunit';3;NULL
840;'robotium';3;NULL
841;'activiz.net';3;NULL
842;'guava';3;NULL
843;'rabbitmq';3;NULL
844;'saml2';3;NULL
845;'ios sdk';3;NULL
846;'codeship';3;NULL
847;'splunk';3;NULL
848;'sphinx search engine';3;NULL
849;'supertest';3;NULL
850;'proto3';3;NULL
851;'asp .net';3;NULL
852;'threads';3;NULL
853;'apc';3;NULL
854;'rhinomock';3;NULL
855;'ssis';3;NULL
856;'myfaces';3;NULL
857;'livedata';3;NULL
858;'phantom';3;NULL
859;'principles';3;NULL
860;'iec 60870-5-101';3;NULL
861;'spock framework';3;NULL
862;'event driven design';3;NULL
863;'sails';3;NULL
864;'el';3;NULL
865;'tapestry';3;NULL
866;'webapi';3;NULL
867;'web testing';3;NULL
868;'docker';3;NULL
869;'docker-compose';3;868
870;'docker swarm';3;868
871;'esb-like solutions';3;NULL
872;'glide';3;NULL
873;'doja';3;NULL
874;'openmp';3;NULL
875;'libtheora';3;NULL
876;'lint';3;NULL
877;'fake it easy';3;NULL
878;'new relic';3;NULL
879;'crypto++';3;NULL
880;'cssnext';3;NULL
881;'ibatis';3;NULL
882;'castle.windsor';3;NULL
883;'junit4';3;NULL
884;'asp';3;NULL
885;'mvp';3;NULL
886;'apns';3;NULL
887;'office plugins';3;NULL
888;'xdebug';3;NULL
889;'blazeds';3;NULL
890;'jni';3;NULL
891;'sax';3;NULL
892;'netty';3;NULL
893;'unity';3;NULL
894;'cucumber';3;NULL
895;'jasperreport';3;NULL
896;'crypto-libraries';3;NULL
897;'eks';3;NULL
898;'thymeleaf';3;NULL
899;'spring';3;NULL
900;'osgi';3;NULL
901;'web services';3;NULL
902;'hibernate validator';3;NULL
903;'ribbon';3;NULL
904;'mongoose';3;NULL
905;'gerrit';3;NULL
906;'cordova & ionic';3;NULL
907;'drone';3;NULL
908;'csr';3;NULL
909;'sidekick';3;NULL
910;'table views';3;NULL
911;'adobe aftereffects';3;NULL
912;'traits';3;NULL
913;'transaction';3;NULL
914;'address book';3;NULL
915;'factorygirls';3;NULL
916;'identityserver 4';3;NULL
917;'ultidev';3;NULL
918;'xamarin';3;NULL
919;'xamarin.ios';3;918
920;'xamarin.android';3;918
921;'xamarin test cloud';3;918
922;'xamarin.forms';3;918
923;'polaris';3;NULL
924;'io';3;NULL
925;'gdi+';3;NULL
926;'symphony 4';3;NULL
927;'virtualbox';3;NULL
928;'rxbining';3;NULL
929;'autofixture';3;NULL
930;'iaas';3;NULL
931;'unittests';3;NULL
932;'d3.js';3;NULL
933;'spring amqp';3;NULL
934;'efprofiler';3;NULL
935;'gcm';3;NULL
936;'wcf 4.0';3;NULL
937;'magicalrecord';3;NULL
938;'restclient';3;NULL
939;'spring.net 1.1';3;NULL
940;'pylons';3;NULL
941;'logback';3;NULL
942;'webforms';3;NULL
943;'ionic';3;NULL
944;'imdg';3;NULL
945;'openvpn';3;NULL
946;'gumby';3;NULL
947;'.net core';3;NULL
948;'mate';3;NULL
949;'fp';3;NULL
950;'gmock';3;NULL
951;'monads';3;NULL
952;'jstest';3;NULL
953;'mvvmlight';3;NULL
954;'ms unit';3;NULL
955;'ms unittesting tool';3;NULL
956;'asp.net core mvc';3;NULL
957;'ssas';3;NULL
958;'sharding';3;NULL
959;'asyncio';3;NULL
960;'moleculer.js';3;NULL
961;'waterfall';3;NULL
962;'scrapy';3;NULL
963;'rx';3;NULL
964;'xmpp-php';3;NULL
965;'j2me';3;NULL
966;'simulink';3;NULL
967;'wwf';3;NULL
968;'autofac';3;NULL
969;'plinq';3;NULL
970;'cryptoapi';3;NULL
971;'servicestack.ormlite';3;NULL
972;'zurb foundation';3;NULL
973;'net.sockets';3;NULL
974;'jmeter';3;NULL
975;'koa';3;NULL
976;'ffmpeg';3;NULL
977;'gui libraries';3;NULL
978;'augmented reality';3;NULL
979;'coreaudio';3;NULL
980;'gang of four';3;NULL
981;'sequelize';3;NULL
982;'search engine';3;NULL
983;'postfix';3;NULL
984;'frameforks';3;NULL
985;'chef';3;NULL
986;'ef';3;NULL
987;'irony dsl';3;NULL
988;'slick';3;NULL
989;'mstest';3;NULL
990;'oozie jobs';3;NULL
991;'simple injector';3;NULL
992;'futures';3;NULL
993;'cqrs';3;NULL
994;'vmware';3;NULL
995;'iridium';3;NULL
996;'cognos bi';3;NULL
997;'zope';3;NULL
998;'sails.js';3;NULL
999;'windows mobile 6.0';3;NULL
1000;'curl';3;NULL
1001;'laravel';3;NULL
1002;'pyspark';3;NULL
1003;'entity framework';3;NULL
1004;'qemu';3;NULL
1005;'os';3;NULL
1006;'godaddy';3;NULL
1007;'mv*';3;NULL
1008;'ipc';3;NULL
1009;'jboss bpm';3;NULL
1010;'hibernate grafana';3;NULL
1011;'jhipster';3;NULL
1012;'asp.net webforms';3;NULL
1013;'android ndk';3;NULL
1014;'sap bi';3;NULL
1015;'soap';3;NULL
1016;'dotmemory';3;NULL
1017;'scrum';3;NULL
1018;'robospice';3;NULL
1019;'akka';3;NULL
1020;'data lake';3;NULL
1021;'java 8 api';3;NULL
1022;'adobe air';3;NULL
1023;'zeromq';3;NULL
1024;'moshi';3;NULL
1025;'mysql fork';3;NULL
1026;'nat';3;NULL
1027;'faye';3;NULL
1028;'wcf 3.5';3;NULL
1029;'elk';3;NULL
1030;'asp.net mc';3;NULL
1031;'ioc';3;NULL
1032;'asynctest';3;NULL
1033;'business analysis';3;NULL
1034;'object model';3;NULL
1035;'recharts';3;NULL
1036;'openal';3;NULL
1037;'xml framework';3;NULL
1038;'spring cloud netflix';3;NULL
1039;'exim';3;NULL
1040;'autocad';3;NULL
1041;'capybara';3;NULL
1042;'iframes';3;NULL
1043;'pic';3;NULL
1044;'accountmanager';3;NULL
1045;'adobe indesign';3;NULL
1046;'enzyme';3;NULL
1047;'joomla';3;NULL
1048;'go orm';3;NULL
1049;'codeception';3;NULL
1050;'puppeteer';3;NULL
1051;'client object model';3;NULL
1052;'smart pointers';3;NULL
1053;'spring core';3;NULL
1054;'electron.js';3;NULL
1055;'ceph';3;NULL
1056;'modbus protocol';3;NULL
1057;'socket';3;NULL
1058;'sts';3;NULL
1059;'cairngorm';3;NULL
1060;'cdi';3;NULL
1061;'pouchdb';3;NULL
1062;'gearman';3;NULL
1063;'robolectric';3;NULL
1064;'stats';3;NULL
1065;'passanger';3;NULL
1066;'core service';3;NULL
1067;'cryptopro framework';3;NULL
1068;'ibm cognos';3;NULL
1069;'plugins';3;NULL
1070;'web.api';3;NULL
1071;'mybatis';3;NULL
1072;'elastisearch';3;NULL
1073;'telerik reporting';3;NULL
1074;'spring data';3;NULL
1075;'mvvmcross';3;NULL
1076;'x509';3;NULL
1077;'reform';3;NULL
1078;'sorl';3;NULL
1079;'spring shell';3;NULL
1080;'datamapper';3;NULL
1081;'rhino-licensing';3;NULL
1082;'expresjs';3;NULL
1083;'sharepoint online';3;NULL
1084;'gamedev';3;NULL
1085;'wowza';3;NULL
1086;'petapoco';3;NULL
1087;'lxc';3;NULL
1088;'akka cluster';3;NULL
1089;'lucene';3;NULL
1090;'datanucleus';3;NULL
1091;'iis';3;NULL
1092;'asp.net mvc 4-5';3;NULL
1093;'ormlite';3;NULL
1094;'drupal cms';3;NULL
1095;'cf';3;NULL
1096;'caml definitions';3;NULL
1097;'wordpress';3;NULL
1098;'3ds max';3;NULL
1099;'mlpack 2.0.1';3;NULL
1100;'cherrypy';3;NULL
1101;'rhinomocks';3;NULL
1102;'geocoding';3;NULL
1103;'sip';3;NULL
1104;'vault';3;NULL
1105;'security';3;NULL
1106;'nightwatch';3;NULL
1107;'box2d';3;NULL
1108;'can protocol';3;NULL
1109;'optimization';3;NULL
1110;'pwm';3;NULL
1111;'ibm webspheremq';3;NULL
1112;'photon socket server';3;NULL
1113;'coregraphics';3;NULL
1114;'asp.net';3;NULL
1115;'kibana';3;NULL
1116;'odnoklassniki';3;NULL
1117;'dapper.net';3;NULL
1118;'txmongo';3;NULL
1119;'afnetworking';3;NULL
1120;'textfields';3;NULL
1121;'nagios';3;NULL
1122;'wix';3;NULL
1123;'xml technology';3;NULL
1124;'code analysis';3;NULL
1125;'nock';3;NULL
1126;'gae framework';3;NULL
1127;'di containers';3;NULL
1128;'codesmith';3;NULL
1129;'sqlcmd';3;NULL
1130;'graphs';3;NULL
1131;'jreport';3;NULL
1132;'currying';3;NULL
1133;'uikit';3;NULL
1134;'jpa2';3;NULL
1135;'ebs';3;NULL
1136;'httpunit';3;NULL
1137;'win32api';3;NULL
1138;'spray';3;NULL
1139;'typegoose';3;NULL
1140;'asp.net ajax';3;NULL
1141;'ansistrano';3;NULL
1142;'bs4';3;NULL
1143;'bug reports';3;NULL
1144;'azure cli';3;NULL
1145;'csom';3;NULL
1146;'identity server';3;NULL
1147;'smartforms';3;NULL
1148;'amazon ec2';3;NULL
1149;'latex';3;NULL
1150;'dagger 2';3;NULL
1151;'ado.net';3;NULL
1152;'bean validation';3;NULL
1153;'farm solutions';3;NULL
1154;'seo';3;NULL
1155;'log4net';3;NULL
1156;'php 5.4';3;NULL
1157;'codereason.reports';3;NULL
1158;'openid connect';3;NULL
1159;'job';3;NULL
1160;'hystrix';3;NULL
1161;'stimulsoft';3;NULL
1162;'async.io';3;NULL
1163;'pjsip';3;NULL
1164;'cocos2d';3;NULL
1165;'mef';3;NULL
1166;'rss';3;NULL
1167;'soci';3;NULL
1168;'npcap';3;NULL
1169;'calabash cucumber';3;NULL
1170;'web apps';3;NULL
1171;'domain model';3;NULL
1172;'picasso';3;NULL
1173;'beginner';3;NULL
1174;'reactive streams';3;NULL
1175;'jasper reports';3;NULL
1176;'webmvc';3;NULL
1177;'seamless';3;NULL
1178;'pcad';3;NULL
1179;'nativescript';3;NULL
1180;'cent';3;NULL
1181;'airflow';3;NULL
1182;'jsom';3;NULL
1183;'rest';3;NULL
1184;'power bi';3;NULL
1185;'dom';3;NULL
1186;'pq';3;NULL
1187;'saml';3;NULL
1188;'migrations';3;NULL
1189;'spark framework';3;NULL
1190;'j2ee';3;NULL
1191;'servlets';3;NULL
1192;'restsharp';3;NULL
1193;'frank';3;NULL
1194;'log4cxx';3;NULL
1195;'azure cloud';3;NULL
1196;'le';3;NULL
1197;'stimulsoft reports';3;NULL
1198;'statistics';3;NULL
1199;'laravel 3';3;NULL
1200;'nunit';3;NULL
1201;'beautifulsoap';3;NULL
1202;'catalyst framework';3;NULL
1203;'powermock';3;NULL
1204;'usb';3;NULL
1205;'.net framework 4.7';3;NULL
1206;'wcf';3;NULL
1207;'jmock';3;NULL
1208;'content master';3;NULL
1209;'bottle.py';3;NULL
1210;'aws';3;NULL
1211;'wif';3;NULL
1212;'zk';3;NULL
1213;'mockito';3;NULL
1214;'gopacket';3;NULL
1215;'gevent';3;NULL
1216;'blackracoon';3;NULL
1217;'shinobicharts';3;NULL
1218;'unbound';3;NULL
1219;'encog 3.3';3;NULL
1220;'xmpp';3;NULL
1221;'media';3;NULL
1222;'doctrine';3;NULL
1223;'doctrine 2';3;1222
1224;'doctrine orm';3;1222
1225;'oo';3;NULL
1226;'rxjava';3;NULL
1227;'spring batch';3;NULL
1228;'kohana';3;NULL
1229;'block';3;NULL
1230;'aws sdk';3;NULL
1231;'nhibernate 3.0';3;NULL
1232;'bitrix';3;NULL
1233;'storyboard';3;NULL
1234;'administration';3;NULL
1235;'eclipselink';3;NULL
1236;'opc ua';3;NULL
1237;'livejournal';3;NULL
1238;'re';3;NULL
1239;'core';3;NULL
1240;'ws-federation';3;NULL
1241;'jwebunit';3;NULL
1242;'minitest';3;NULL
1243;'vtk';3;NULL
1244;'modernui';3;NULL
1245;'glimpse';3;NULL
1246;'wxpython';3;NULL
1247;'ado .net';3;NULL
1248;'volley';3;NULL
1249;'pynetsnmp';3;NULL
1250;'material design';3;NULL
1251;'dsp filters';3;NULL
1252;'durandaljs';3;NULL
1253;'highcharts';3;NULL
1254;'irrlicht';3;NULL
1255;'php code sniffer';3;NULL
1256;'asp.net webapi 2';3;NULL
1257;'jpa';3;NULL
1258;'feedparser';3;NULL
1259;'microsoft sharepoint';3;NULL
1260;'resty gwt';3;NULL
1261;'doxygen';3;NULL
1262;'evenkit';3;NULL
1263;'custom views';3;NULL
1264;'reporting ssrs';3;NULL
1265;'mailchimp';3;NULL
1266;'owin';3;NULL
1267;'java core';3;NULL
1268;'concrete5';3;NULL
1269;'txpostgres';3;NULL
1270;'redis';3;NULL
1271;'postsharp';3;NULL
1272;'rmi';3;NULL
1273;'fmdb';3;NULL
1274;'soa';3;NULL
1275;'flux architecture';3;NULL
1276;'cloud platforms';3;NULL
1277;'jobqueue';3;NULL
1278;'sabredav';3;NULL
1279;'core animation';3;NULL
1280;'zend framework 3';3;NULL
1281;'rdf';3;NULL
1282;'pecl';3;NULL
1283;'soapui';3;NULL
1284;'asp.net mvc 4.5';3;NULL
1285;'office 365';3;NULL
1286;'tpl dataflow';3;NULL
1287;'lottie';3;NULL
1288;'yml';3;NULL
1289;'pdf';3;NULL
1290;'techniques';3;NULL
1291;'focus';3;NULL
1292;'ssom';3;NULL
1293;'principle';3;NULL
1294;'unity ioc container';3;NULL
1295;'spray-json';3;NULL
1296;'kentico cms';3;NULL
1297;'fabric';3;NULL
1298;'xdocreport';3;NULL
1299;'rxjava 2';3;NULL
1300;'cuda';3;NULL
1301;'autobahn';3;NULL
1302;'greenrobot';3;NULL
1303;'lightswitch';3;NULL
1304;'states';3;NULL
1305;'turbogears';3;NULL
1306;'vmware powercli';3;NULL
1307;'testing - junit';3;NULL
1308;'openstreetmap';3;NULL
1309;'powershell';3;NULL
1310;'asp.net mvc core';3;NULL
1311;'myworld';3;NULL
1312;'exoplayer';3;NULL
1313;'uwsgi';3;NULL
1314;'rxandroid';3;NULL
1315;'libraries';3;NULL
1316;'lxml';3;NULL
1317;'elastic';3;NULL
1318;'armadillo 6.7';3;NULL
1319;'zxing';3;NULL
1320;'fastcube';3;NULL
1321;'aws lambda';3;NULL
1322;'gtk+-2.x';3;NULL
1323;'http server';3;NULL
1324;'rxui';3;NULL
1325;'dwr';3;NULL
1326;'jaxb';3;NULL
1327;'ntop';3;NULL
1328;'js & css';3;NULL
1329;'udap';3;NULL
1330;'ssrs';3;NULL
1331;'ehcache';3;NULL
1332;'tdd';3;NULL
1333;'java se';3;NULL
1334;'dxperience';3;NULL
1335;'jupyter notebooks';3;NULL
1336;'libc';3;NULL
1337;'devexpress libraries';3;NULL
1338;'win 32api';3;NULL
1339;'peewee-async';3;NULL
1340;'comscore';3;NULL
1341;'spock';3;NULL
1342;'nginx';3;NULL
1343;'grpc';3;NULL
1344;'mapreduce';3;NULL
1345;'sqoop';3;NULL
1346;'ghost';3;NULL
1347;'popcap';3;NULL
1348;'actionbarsherlock';3;NULL
1349;'moment';3;NULL
1350;'capistrano';3;NULL
1351;'elasticsearch';3;NULL
1352;'wso2 esb';3;NULL
1353;'mscrm 4.0';3;NULL
1354;'jxls';3;NULL
1355;'uiprototype';3;NULL
1356;'uart';3;NULL
1357;'testflight';3;NULL
1358;'kvm';3;NULL
1359;'ramda';3;NULL
1360;'jscodeshift';3;NULL
1361;'framework7';3;NULL
1362;'spring ws';3;NULL
1363;'paypal';3;NULL
1364;'image manipulation';3;NULL
1365;'mahapps.metro';3;NULL
1366;'muleesb';3;NULL
1367;'codesniffer';3;NULL
1368;'dollar';3;NULL
1369;'opengl';3;NULL
1370;'satchmo';3;NULL
1371;'jackson';3;NULL
1372;'smart';3;NULL
1373;'boost property tree';3;NULL
1374;'rabbit mq';3;NULL
1375;'sql profiler';3;NULL
1376;'grab';3;NULL
1377;'opencv for android';3;NULL
1378;'ssh';3;NULL
1379;'spring data jpa';3;NULL
1380;'matplotlib';3;NULL
1381;'windows forms';3;NULL
1382;'ffserver';3;NULL
1383;'gitlab';3;NULL
1384;'fastreport.net';3;NULL
1385;'kohana php framework';3;NULL
1386;'yahoo';3;NULL
1387;'ca siteminder';3;NULL
1388;'functions';3;NULL
1389;'bdd';3;NULL
1390;'lambda expressions';3;NULL
1391;'fetch api';3;NULL
1392;'sharpdx';3;NULL
1393;'ef interceptors';3;NULL
1394;'stream analytics';3;NULL
1395;'sap crystal reports';3;NULL
1396;'avocode';3;NULL
1397;'padrino';3;NULL
1398;'pundit';3;NULL
1399;'ebay';3;NULL
1400;'spring webflux';3;NULL
1401;'fluentscheduler';3;NULL
1402;'hybris';3;NULL
1403;'rll';3;NULL
1404;'expecto';3;NULL
1405;'spinnaker';3;NULL
1406;'gesture recognizer';3;NULL
1407;'toplink';3;NULL
1408;'firebase';3;NULL
1409;'eloquent';3;NULL
1410;'xapian';3;NULL
1411;'guzzle';3;NULL
1412;'monotouch';3;NULL
1413;'jee';3;NULL
1414;'jee 6';3;1413
1415;'pcl';3;NULL
1416;'vanillajs';3;NULL
1417;'okhttp websockets';3;NULL
1418;'apach wicket';3;NULL
1419;'data visualization';3;NULL
1420;'unicorn';3;NULL
1421;'portlets';3;NULL
1422;'dataojects.net';3;NULL
1423;'ant-design';3;NULL
1424;'ios 7';3;NULL
1425;'rds';3;NULL
1426;'sso';3;NULL
1427;'swagger 2';3;NULL
1428;'linq';3;NULL
1429;'linq2db';3;1428
1430;'linq2sql';3;1428
1431;'linq2objects';3;1428
1432;'linq2entities';3;1428
1433;'linq2xml';3;1428
1434;'avro';3;NULL
1435;'watchos 2.0';3;NULL
1436;'saml 2.0';3;NULL
1437;'xmlrpc';3;NULL
1438;'espresso';3;NULL
1439;'xajax';3;NULL
1440;'ionic framework';3;NULL
1441;'soap api';3;NULL
1442;'facebook sdk';3;NULL
1443;'ci';3;NULL
1444;'mathcad';3;NULL
1445;'autofaq';3;NULL
1446;'request';3;NULL
1447;'appfabric cache';3;NULL
1448;'sap ecc6.0';3;NULL
1449;'jasperreports';3;NULL
1450;'gsap';3;NULL
1451;'jse';3;NULL
1452;'fibplus';3;NULL
1453;'percona';3;NULL
1454;'logwatch';3;NULL
1455;'databindings';3;NULL
1456;'integration';3;NULL
1457;'play! framework';3;NULL
1458;'sentry';3;NULL
1459;'oauth2';3;NULL
1460;'banks payment';3;NULL
1461;'simple html dom';3;NULL
1462;'leaflet';3;NULL
1463;'libtorrent';3;NULL
1464;'web';3;NULL
1465;'elk stack';3;NULL
1466;'razor';3;NULL
1467;'watin';3;NULL
1468;'swag';3;NULL
1469;'sinon';3;NULL
1470;'hibernate orm';3;NULL
1471;'jpa 2.0';3;NULL
1472;'facebook';3;NULL
1473;'nmea protocol';3;NULL
1474;'wtforms';3;NULL
1475;'laravel 5.6';3;NULL
1476;'ms office';3;NULL
1477;'amazon ses';3;NULL
1478;'saas';3;NULL
1479;'solman';3;NULL
1480;'berkey sockets';3;NULL
1481;'net core';3;NULL
1482;'server';3;NULL
1483;'aop';3;NULL
1484;'crashlitycs';3;NULL
1485;'cloudtrail';3;NULL
1486;'consul';3;NULL
1487;'jasmine.js';3;NULL
1488;'scalacheck';3;NULL
1489;'c# razor';3;NULL
1490;'wxwidgets';3;NULL
1491;'machine learning';3;NULL
1492;'adobe indesign cc';3;NULL
1493;'tesseract';3;NULL
1494;'meteor.js';3;NULL
1495;'iec1107';3;NULL
1496;'memcached';3;NULL
1497;'holoeverywhere';3;NULL
1498;'luabind';3;NULL
1499;'core graphics';3;NULL
1500;'grails';3;NULL
1501;'jsf2';3;NULL
1502;'colors';3;NULL
1503;'libreoffice';3;NULL
1504;'red hat wildfly';3;NULL
1505;'opencl';3;NULL
1506;'freemarker';3;NULL
1507;'lucene.net';3;NULL
1508;'play';3;NULL
1509;'i2c';3;NULL
1510;'flexirent';3;NULL
1511;'meter';3;NULL
1512;'testexecutive';3;NULL
1513;'finagle';3;NULL
1514;'grids';3;NULL
1515;'oauth2.0';3;NULL
1516;'puma';3;NULL
1517;'spd workflow';3;NULL
1518;'msxml';3;NULL
1519;'sonarcube';3;NULL
1520;'microchip';3;NULL
1521;'ftp';3;NULL
1522;'pentaho mondrian';3;NULL
1523;'flask';3;NULL
1524;'flask-admin';3;1523
1525;'flask-restless';3;1523
1526;'flask-principal';3;1523
1527;'flask-restful';3;1523
1528;'flask-sqlalchemy';3;1523
1529;'flask-login';3;1523
1530;'mono';3;NULL
1531;'mono 1.0.6+';3;1530
1532;'kiwi';3;NULL
1533;'sequelize.js';3;NULL
1534;'identity server 4';3;NULL
1535;'amazon auto-scaling';3;NULL
1536;'atl';3;NULL
1537;'timber';3;NULL
1538;'eclipse rsp';3;NULL
1539;'ms silverlight';3;NULL
1540;'wcf - rest';3;NULL
1541;'simplexml';3;NULL
1542;'ms fake framework';3;NULL
1543;'spring.net';3;NULL
1544;'cleanroomlogger';3;NULL
1545;'nuget';3;NULL
1546;'titanium';3;NULL
1547;'behat';3;NULL
1548;'doobie';3;NULL
1549;'message queues';3;NULL
1550;'chronopay';3;NULL
1551;'bobj';3;NULL
1552;'html agility pack';3;NULL
1553;'posix threads';3;NULL
1554;'wmi';3;NULL
1555;'sharepoint';3;NULL
1556;'pyramid';3;NULL
1557;'regular expressions';3;NULL
1558;'phalcon';3;NULL
1559;'flume';3;NULL
1560;'libogg';3;NULL
1561;'documentation';3;NULL
1562;'mandrillapp';3;NULL
1563;'sharepoint workflow';3;NULL
1564;'lombok';3;NULL
1565;'geolocation';3;NULL
1566;'data formats';3;NULL
1567;'php-fpm';3;NULL
1568;'javabeans';3;NULL
1569;'reflector';3;NULL
1570;'webaii';3;NULL
1571;'storekit';3;NULL
1572;'libvorbis';3;NULL
1573;'iam';3;NULL
1574;'golint';3;NULL
1575;'gocd';3;NULL
1576;'entityframework';3;NULL
1577;'rfc 3261';3;NULL
1578;'protracktor';3;NULL
1579;'octopus deploy';3;NULL
1580;'mod_perl';3;NULL
1581;'scandit';3;NULL
1582;'multithreading';3;NULL
1583;'etl';3;NULL
1584;'paralell linq';3;NULL
1585;'spring web services';3;NULL
1586;'ado';3;NULL
1587;'tinyioc';3;NULL
1588;'zend server';3;NULL
1589;'php deployment tool';3;NULL
1590;'ruby on rails';3;NULL
1591;'winapi';3;NULL
1592;'common.logging';3;NULL
1593;'fragments';3;NULL
1594;'materialize';3;NULL
1595;'activiti bpm';3;NULL
1596;'ver. 1.1';3;NULL
1597;'devexpress reporting';3;NULL
1598;'fast report';3;NULL
1599;'dbexpress';3;NULL
1600;'castle';3;NULL
1601;'.net winforms';3;NULL
1602;'lo';3;NULL
1603;'entity framework 5-6';3;NULL
1604;'open inventor';3;NULL
1605;'postgis';3;NULL
1606;'sharepoint apps';3;NULL
1607;'pkcs#11';3;NULL
1608;'code smith';3;NULL
1609;'nxp';3;NULL
1610;'dojo toolkit';3;NULL
1611;'ism tranceivers';3;NULL
1612;'play framework';3;NULL
1613;'workflow';3;NULL
1614;'asio';3;NULL
1615;'typeorm';3;NULL
1616;'pthread';3;NULL
1617;'android tv-leanback';3;NULL
1618;'pisip';3;NULL
1619;'solution manager';3;NULL
1620;'scalatest';3;NULL
1621;'ads';3;NULL
1622;'slf4j';3;NULL
1623;'hapi';3;NULL
1624;'wicket';3;NULL
1625;'ndk';3;NULL
1626;'mbunit';3;NULL
1627;'symphony';3;NULL
1628;'oauth';3;NULL
1629;'nvm';3;NULL
1630;'karma & jasmine';3;NULL
1631;'web api';3;NULL
1632;'uwp';3;NULL
1633;'vagrant';3;NULL
1634;'asp.net toolkit';3;NULL
1635;'solr';3;NULL
1636;'runspaces';3;NULL
1637;'network equipment';3;NULL
1638;'invision studio';3;NULL
1639;'n-tier architecture';3;NULL
1640;'birt';3;NULL
1641;'mongoengine';3;NULL
1642;'public clouds';3;NULL
1643;'glibc';3;NULL
1644;'spring jms';3;NULL
1645;'sap';3;NULL
1646;'scikit';3;NULL
1647;'acronis';3;NULL
1648;'gexpert';3;NULL
1649;'phpexcel';3;NULL
1650;'es2015+';3;NULL
1651;'expressions';3;NULL
1652;'pdf toolkit';3;NULL
1653;'activex';3;NULL
1654;'adf';3;NULL
1655;'web workers';3;NULL
1656;'win forms';3;NULL
1657;'ms test';3;NULL
1658;'doa';3;NULL
1659;'work method';3;NULL
1660;'text kit';3;NULL
1661;'custom containers';3;NULL
1662;'mvvmlighttoolkit';3;NULL
1663;'data structures';3;NULL
1664;'akka streams';3;NULL
1665;'twisted';3;NULL
1666;'odata services';3;NULL
1667;'openstreetmaps';3;NULL
1668;'win api';3;NULL
1669;'flummox';3;NULL
1670;'redshift';3;NULL
1671;'moq';3;NULL
1672;'crashlytics';3;NULL
1673;'jgroups';3;NULL
1674;'yavijava';3;NULL
1675;'scalaz';3;NULL
1676;'mapi';3;NULL
1677;'custom activities';3;NULL
1678;'nsubstitute';3;NULL
1679;'ws-securuty';3;NULL
1680;'.net';3;NULL
1681;'oo4o';3;NULL
1682;'ews';3;NULL
1683;'eip';3;NULL
1684;'mandrill';3;NULL
1685;'compact framework';3;NULL
1686;'joox';3;NULL
1687;'phpunit';3;NULL
1688;'rails';3;NULL
1689;'eloquent orm';3;NULL
1690;'corporate security';3;NULL
1691;'s3';3;NULL
1692;'in-app purchase';3;NULL
1693;'sharepoint 2010';3;NULL
1694;'map kit';3;NULL
1695;'mojarra';3;NULL
1696;'reactiveui';3;NULL
1697;'erp 6';3;NULL
1698;'ole';3;NULL
1699;'spring.net framework';3;NULL
1700;'mock';3;NULL
1701;'thin';3;NULL
1702;'pcre';3;NULL
1703;'asp.net webapi';3;NULL
1704;'.net 4';3;NULL
1705;'sqliteassetshelper';3;NULL
1706;'apollo client';3;NULL
1707;'owl';3;NULL
1708;'eclipse gef';3;NULL
1709;'hypervisors';3;NULL
1710;'storyboards';3;NULL
1711;'loopback.js';3;NULL
1712;'replication';3;NULL
1713;'passport';3;NULL
1714;'afnetwroking';3;NULL
1715;'castle windsor ioc';3;NULL
1716;'nuance';3;NULL
1717;'esxi';3;NULL
1718;'ocunit';3;NULL
1719;'ava';3;NULL
1720;'ioc containers';3;NULL
1721;'vert.x';3;NULL
1722;'promises';3;NULL
1723;'data factory';3;NULL
1724;'apex';3;NULL
1725;'joint.js';3;NULL
1726;'webflux';3;NULL
1727;'facebook api';3;NULL
1728;'rhinomoq';3;NULL
1729;'api';3;NULL
1730;'orm';3;NULL
1731;'epplus';3;NULL
1732;'undertow';3;NULL
1733;'ms reporting service';3;NULL
1734;'docsvision';3;NULL
1735;'vis.js';3;NULL
1736;'dygraphs';3;NULL
1737;'service workers';3;NULL
1738;'solid';3;NULL
1739;'automation';3;NULL
1740;'state management';3;NULL
1741;'moya';3;NULL
1742;'terraform';3;NULL
1743;'hive';3;NULL
1744;'glusterfs';3;NULL
1745;'tape';3;NULL
1746;'animation';3;NULL
1747;'dwh';3;NULL
1748;'winium';3;NULL
1749;'gd';3;NULL
1750;'identityserver 3';3;NULL
1751;'sumologic';3;NULL
1752;'unobtrusive.ajax';3;NULL
1753;'ses';3;NULL
1754;'windows media server';3;NULL
1755;'store kit';3;NULL
1756;'micronaut';3;NULL
1757;'rails api';3;NULL
1758;'log4j';3;NULL
1759;'codigniter';3;NULL
1760;'pillow';3;NULL
1761;'ansi c12.21';3;NULL
1762;'cakephp';3;NULL
1763;'bind';3;NULL
1764;'checkstyle';3;NULL
1765;'codedom';3;NULL
1766;'.net core 3';3;NULL
1767;'core data';3;NULL
1768;'wsh';3;NULL
1769;'unity framework';3;NULL
1770;'spring boot';3;NULL
1771;'moxy';3;NULL
1772;'wf';3;NULL
1773;'mocha.js';3;NULL
1774;'stimulsoft.net';3;NULL
1775;'collections';3;NULL
1776;'odata';3;NULL
1777;'event buses';3;NULL
1778;'querydsl';3;NULL
1779;'boot';3;NULL
1780;'microchip mplab';3;NULL
1781;'scm';3;NULL
1782;'entityframeworkcore';3;NULL
1783;'typesafe stack';3;NULL
1784;'agenda';3;NULL
1785;'houndci';3;NULL
1786;'microsoft powerbi';3;NULL
1787;'ibm mq';3;NULL
1788;'php unit';3;NULL
1789;'ms unity';3;NULL
1790;'odac';3;NULL
1791;'prometheus';3;NULL
1792;'flurry';3;NULL
1793;'swtbot';3;NULL
1794;'libxslt';3;NULL
1795;'xcunit';3;NULL
1796;'json-rpc';3;NULL
1797;'tuscany';3;NULL
1798;'nas';3;NULL
1799;'mailer';3;NULL
1800;'rpc';3;NULL
1801;'easymock';3;NULL
1802;'.net micro framework';3;NULL
1803;'asihttprequest';3;NULL
1804;'yeoman';3;NULL
1805;'android sdk';3;NULL
1806;'core telephony';3;NULL
1807;'bde';3;NULL
1808;'asp.net mvc';3;NULL
1809;'whenever';3;NULL
1810;'java 8';3;NULL
1811;'nlog';3;NULL
1812;'opentok';3;NULL
1813;'loopback';3;NULL
1814;'java sockets';3;NULL
1815;'playgroud';3;NULL
1816;'asm';3;NULL
1817;'twig template engine';3;NULL
1818;'ms report builder';3;NULL
1819;'smarty';3;NULL
1820;'visio';3;NULL
1821;'jdk';3;NULL
1822;'workflows';3;NULL
1823;'bpmn';3;NULL
1824;'fluent nhibernate';3;NULL
1825;'cocoa';3;NULL
1826;'cocoa touch';3;1825
1827;'cocoapods';3;1825
1828;'reactivecocoa';3;1825
1829;'wcf 4';3;NULL
1830;'ui test';3;NULL
1831;'boost asio';3;NULL
1832;'posix';3;NULL
1833;'twilio';3;NULL
1834;'seam';3;NULL
1835;'webdav';3;NULL
1836;'local storage';3;NULL
1837;'mpi';3;NULL
1838;'circleci';3;NULL
1839;'devops';3;NULL
1840;'libxml2';3;NULL
1841;'zendframework';3;NULL
1842;'cacti';3;NULL
1843;'poi';3;NULL
1844;'bapi';3;NULL
1845;'mvvm';3;NULL
1846;'hazelcast';3;NULL
1847;'nsis';3;NULL
1848;'sendmail';3;NULL
1849;'coroutines';3;NULL
1850;'jdbc';3;NULL
1851;'postman';3;NULL
1852;'azure devops';3;NULL
1853;'biztalk';3;NULL
1854;'ssr';3;NULL
1855;'jms';3;NULL
1856;'di';3;NULL
1857;'appblade';3;NULL
1858;'cpan';3;NULL
1859;'uhf circuits';3;NULL
1860;'eyeshot';3;NULL
1861;'spring jdbc';3;NULL
1862;'componentart';3;NULL
1863;'vk api';3;NULL
1864;'csharpziplib';3;NULL
1865;'relarm';3;NULL
1866;'dottrace';3;NULL
1867;'ddd';3;NULL
1868;'virtualenv';3;NULL
1869;'microsoft reports';3;NULL
1870;'factorybot';3;NULL
1871;'adobe xd';3;NULL
1872;'mpdf';3;NULL
1873;'opengl es';3;NULL
1874;'adaptive layout';3;NULL
1875;'kong';3;NULL
1876;'snmp';3;NULL
1877;'wildfly';3;NULL
1878;'imagemagick';3;NULL
1879;'sinatra';3;NULL
1880;'hibernate';3;NULL
1881;'bw';3;NULL
1882;'unity3d';3;NULL
1883;'jaxp';3;NULL
1884;'ldap';3;NULL
1885;'struts framework';3;NULL
1886;'twitter sdk';3;NULL
1887;'flutter';3;NULL
1888;'hamcrest';3;NULL
1889;'class library';3;NULL
1890;'.net wpf';3;NULL
1891;'asp.net - webforms';3;NULL
1892;'windows.forms';3;NULL
1893;'iop';3;NULL
1894;'cgi';3;NULL
1895;'qr-code scanner';3;NULL
1896;'gsoap';3;NULL
1897;'openlayers';3;NULL
1898;'junit';3;NULL
1899;'ngui';3;NULL
1900;'ood';3;NULL
1901;'django';3;NULL
1902;'geodjango';3;1901
1903;'django cms';3;1901
1904;'django rest';3;1901
1905;'django orm';3;1901
1906;'django 2';3;1901
1907;'django 3';3;1901
1908;'reflux';3;NULL
1909;'npgsql';3;NULL
1910;'parse sdk';3;NULL
1911;'java jets';3;NULL
1912;'passport.js';3;NULL
1913;'thrift';3;NULL
1914;'gof';3;NULL
1915;'promisekit';3;NULL
1916;'vmware vsphere';3;NULL
1917;'portlet';3;NULL
1918;'zend db';3;NULL
1919;'rdkafka';3;NULL
1920;'msmq';3;NULL
1921;'realplexor';3;NULL
1922;'mailcatcher';3;NULL
1923;'nbuilder';3;NULL
1924;'sidekiq';3;NULL
1925;'automapper';3;NULL
1926;'tastypie';3;NULL
1927;'alamofire';3;NULL
1928;'pl';3;NULL
1929;'jooq';3;NULL
1930;'silex';3;NULL
1931;'tpl';3;NULL
1932;'kubernetes';3;NULL
1933;'hockey app';3;NULL
1934;'com';3;NULL
1935;'webmoney api';3;NULL
1936;'sockets';3;NULL
1937;'yahoo api';3;NULL
1938;'arcgis online';3;NULL
1939;'drupal';3;NULL
1940;'dotnetnuke';3;NULL
1941;'matlab';3;NULL
1942;'veeam';3;NULL
1943;'rhino mocks';3;NULL
1944;'pmbok';3;NULL
1945;'directx 11';3;NULL
1946;'wordpress cms';3;NULL
1947;'gcd';3;NULL
1948;'expression trees';3;NULL
1949;'libssl';3;NULL
1950;'nhibernate';3;NULL
1951;'jax-rs';3;NULL
1952;'displaytag';3;NULL
1953;'unittest';3;NULL
1954;'user stories';3;NULL
1955;'gdata';3;NULL
1956;'hikaricp';3;NULL
1957;'lumen';3;NULL
1958;'core location';3;NULL
1959;'sap jco';3;NULL
1960;'audiotoolbox';3;NULL
1961;'python unittest';3;NULL
1962;'structuremap';3;NULL
1963;'whoosh';3;NULL
1964;'liquibase';3;NULL
1965;'springboot';3;NULL
1966;'telegram api';3;NULL
1967;'sdk';3;NULL
1968;'kpi';3;NULL
1969;'dlib 18.18';3;NULL
1970;'gtest';3;NULL
1971;'opcache';3;NULL
1972;'asp.net web api';3;NULL
1973;'xerces';3;NULL
1974;'avr toolchain';3;NULL
1975;'calligraphy';3;NULL
1976;'openid';3;NULL
1977;'alembic';3;NULL
1978;'azure';3;NULL
1979;'mobile apps';3;NULL
1980;'ms coded ui';3;NULL
1981;'jndi';3;NULL
1982;'ibm websphere mq';3;NULL
1983;'wsgi';3;NULL
1984;'werkzeug';3;1983
1985;'stdlibc';3;NULL
1986;'phpmyadmin';3;NULL
1987;'ruby_on_rails';3;NULL
1988;'active directory';3;NULL
1989;'protobuf-net';3;NULL
1990;'nest.js';3;NULL
1991;'single sign-on';3;NULL
1992;'nancyfx';3;NULL
1993;'ibm extremescale';3;NULL
1994;'sns';3;NULL
1995;'rubyonrails';3;NULL
1996;'joomla platform';3;NULL
1997;'swiz';3;NULL
1998;'j2se';3;NULL
1999;'composer';3;NULL
2000;'corelocation';3;NULL
2001;'lamp';3;NULL
2002;'red5';3;NULL
2003;'libssh2';3;NULL
2004;'unity container';3;NULL
2005;'solid principles';3;NULL
2006;'zend framework 1';3;NULL
2007;'coreanimation';3;NULL
2008;'xls';3;NULL
2009;'auth';3;NULL
2010;'kotterknife';3;NULL
2011;'openxml';3;NULL
2012;'reactphp';3;NULL
2013;'jupyter notebook';3;NULL
2014;'geocortex';3;NULL
2015;'dependency managers';3;NULL
2016;'ec2';3;NULL
2017;'activeandroid';3;NULL
2018;'agile';3;NULL
2019;'api blueprint';3;NULL
2020;'cordova';3;NULL
2021;'webdriverio';3;NULL
2022;'codegniter';3;NULL
2023;'tornado';3;NULL
2024;'badi';3;NULL
2025;'thucydides';3;NULL
2026;'ups';3;NULL
2027;'vulkan';3;NULL
2028;'findbugs';3;NULL
2029;'heroku';3;NULL
2030;'rocketeer';3;NULL
2031;'playframework';3;NULL
2032;'cors';3;NULL
2033;'cml';3;NULL
2034;'asp.net signalr';3;NULL
2035;'authorize.net';3;NULL
2036;'web parts';3;NULL
2037;'hockeyapp';3;NULL
2038;'iot';3;NULL
2039;'pytest';3;NULL
2040;'standard c library';3;NULL
2041;'tox';3;NULL
2042;'reactivex';3;NULL
2043;'caches';3;NULL
2044;'t4 templates';3;NULL
2045;'bi';3;NULL
2046;'celery';3;NULL
2047;'ipp';3;NULL
2048;'mathematics';3;NULL
2049;'.net mvc razor';3;NULL
2050;'computer vision';3;NULL
2051;'phpquery';3;NULL
2052;'linqxml';3;NULL
2053;'ava.js';3;NULL
2054;'raml';3;NULL
2055;'ajax.net';3;NULL
2056;'social apis';3;NULL
2057;'rest api';3;NULL
2058;'core foundation';3;NULL
2059;'sandboxed solutions';3;NULL
2060;'mitm';3;NULL
2061;'zend framework 2';3;NULL
2062;'ws';3;NULL
2063;'aspects';3;NULL
2064;'expressjs';3;NULL
2065;'arm system generator';3;NULL
2066;'mopub';3;NULL
2067;'gcp';3;NULL
2068;'rapidminer';3;NULL
2069;'interceptors';3;NULL
2070;'iad';3;NULL
2071;'xp com';3;NULL
2072;'richview';3;NULL
2073;'tfs';3;NULL
2074;'simplecov';3;NULL
2075;'pdo';3;NULL
2076;'monaca';3;NULL
2077;'printers';3;NULL
2078;'sbjson';3;NULL
2079;'testng';3;NULL
2080;'nfsen';3;NULL
2081;'rollbar';3;NULL
2082;'codedui';3;NULL
2083;'silenium';3;NULL
2084;'cruise control';3;NULL
2085;'sap bi sdk';3;NULL
2086;'ado.net. bltoolkit';3;NULL
2087;'usps';3;NULL
2088;'silicon labs';3;NULL
2089;'libcurl';3;NULL
2090;'carthage';3;NULL
2091;'sphinx';3;NULL
2092;'sse';3;NULL
2093;'reflection';3;NULL
2094;'wp7';3;NULL
2095;'bash';3;NULL
2096;'xaml';3;NULL
2097;'quickgenerate';3;NULL
2098;'spring rest';3;NULL
2099;'tail recursion';3;NULL
2100;'clickonce';3;NULL
2101;'beautifulsoup';3;NULL
2102;'koa.js';3;NULL
2103;'analytics';3;NULL
2104;'youtubesdk';3;NULL
2105;'fitness';3;NULL
2106;'xunitre';3;NULL
2107;'nltk';3;NULL
2108;'ms dynamics crm';3;NULL
2109;'molecular';3;NULL
2110;'odbc';3;NULL
2111;'ms azure';3;NULL
2112;'newtonsoft.json';3;NULL
2113;'markdown';3;NULL
2114;'serverless';3;NULL
2115;'guice';3;NULL
2116;'mvc 5';3;NULL
2117;'cloudfoundry';3;NULL
2118;'asp.net mvc 4';3;NULL
2119;'fastcgi';3;NULL
2120;'javafx';3;NULL
2121;'materializecss';3;NULL
2122;'aiohttp';3;NULL
2123;'rspec';3;NULL
2124;'saltstack';3;NULL
2125;'dac';3;NULL
2126;'jinja2';3;NULL
2127;'parsley';3;NULL
2128;'mvc';3;NULL
2129;'nestjs';3;NULL
2130;'servlet api';3;NULL
2131;'java me';3;NULL
2132;'pipenv';3;NULL
2133;'boost.test';3;NULL
2134;'neon';3;NULL
2135;'inversify.js';3;NULL
2136;'php unittest';3;NULL
2137;'zend framework 1.11';3;NULL
2138;'phpdoc';3;NULL
2139;'timers';3;NULL
2140;'opentoken';3;NULL
2141;'less css';3;NULL
2142;'asp.net mvc 5';3;NULL
2143;'packer';3;NULL
2144;'amqplib';3;NULL
2145;'ecs';3;NULL
2146;'netflix stack';3;NULL
2147;'netflix zuul';3;NULL
2148;'sonata';3;NULL
2149;'rmagic';3;NULL
2150;'application insights';3;NULL
2151;'aerospike';4;NULL
2152;'amazon (db tools)';4;NULL
2153;'aws data pipeline';4;2152
2154;'amazon documentdb';4;2152
2155;'amazon dynamodb';4;2152
2156;'amazon rds';4;2152
2157;'apache (db tools)';4;NULL
2158;'apache cassandra';4;2157
2159;'apache derby';4;2157
2160;'apache impala';4;2157
2161;'couchdb';4;2157
2162;'arangodb';4;NULL
2163;'cache';4;NULL
2164;'clickhouse';4;NULL
2165;'db2';4;NULL
2166;'dirtydb';4;NULL
2167;'firebase  (db)';4;NULL
2168;'firebird';4;NULL
2169;'firebird 1.0';4;2168
2170;'firebird 1.5';4;2168
2171;'firebird 2.0';4;2168
2172;'firebird 2.1';4;2168
2173;'firebird 2.5';4;2168
2174;'gt.m';4;NULL
2175;'h2';4;NULL
2176;'hana';4;NULL
2177;'influxdb';4;NULL
2178;'interbase';4;NULL
2179;'leveldb';4;NULL
2180;'localdb';4;NULL
2181;'mariadb';4;NULL
2182;'microsoft (db, tools)';4;NULL
2183;'azure cosmos db';4;2182
2184;'azure data factory';4;2182
2185;'azure table storage';4;2182
2186;'microsoft access';4;2182
2187;'microsoft sql profiler';4;2182
2188;'ssms';4;2182
2189;'mssql';4;2182
2190;'mssql compact edition';4;2189
2191;'sql azure';4;2182
2192;'mongodb';4;NULL
2193;'mongodb 2.2';4;2192
2194;'mongodb 2.4';4;2192
2195;'mongodb 2.6';4;2192
2196;'mongo db 3.0';4;2192
2197;'mongo db 3.2';4;2192
2198;'mongo db 3.4';4;2192
2199;'mongo db 3.6';4;2192
2200;'mysql';4;NULL
2201;'mysql 5.0';4;2200
2202;'mysql 5.0.91';4;2201
2203;'mysql 5.1';4;2200
2204;'mysql 5.5';4;2200
2205;'mysql workbench';4;2200
2206;'neo4j';4;NULL
2207;'oracle (db)';4;NULL
2208;'berkeley db';4;2207
2209;'oracle 8i';4;2207
2210;'oracle 9i';4;2207
2211;'oracle 10g';4;2207
2212;'oracle 11g';4;2207
2213;'orientdb';4;NULL
2214;'pervasive psql';4;NULL
2215;'postgresql';4;NULL
2216;'postgresql 9.0';4;2215
2217;'postgresql 9.1';4;2215
2218;'postgresql 9.2';4;2215
2219;'postgresql 9.3';4;2215
2220;'postgresql 9.4';4;2215
2221;'postgresql 9.5';4;2215
2222;'postgresql 9.6';4;2215
2223;'postgresql 10';4;2215
2224;'progress';4;NULL
2225;'ravendb';4;NULL
2226;'realm';4;NULL
2227;'rethinkdb';4;NULL
2228;'riak';4;NULL
2229;'sqlite';4;NULL
2230;'sqlite 3';4;2229
2231;'sugarorm';4;NULL
2232;'sybase';4;NULL
2233;'teradata';4;NULL
2234;'zodb';4;NULL
2235;'ansible';5;NULL
2236;'ansible 1.9';5;2235
2237;'apache (building tools)';5;NULL
2238;'apache ant';5;2237
2239;'apache ivy';5;2237
2240;'apache maven';5;2237
2241;'maven';5;2240
2242;'aws (building tools)';5;NULL
2243;'aws codebuild';5;2242
2244;'aws codedeploy';5;2242
2245;'azure pipelines';5;NULL
2246;'bamboo';5;NULL
2247;'broccoli';5;NULL
2248;'cake';5;NULL
2249;'qmake';5;NULL
2250;'cmake';5;NULL
2251;'codepush';5;NULL
2252;'cruisecontrol';5;NULL
2253;'cruisecontrol.net';5;2252
2254;'debianize';5;NULL
2255;'fake';5;NULL
2256;'fastlane';5;NULL
2257;'gitlab ci/cd';5;NULL
2258;'gitlab runner';5;2257
2259;'gcc';5;NULL
2260;'gradle';5;NULL
2261;'hudson';5;NULL
2262;'jenkins';5;NULL
2263;'leiningen';5;NULL
2264;'make';5;NULL
2265;'microsoft';5;NULL
2266;'microsoft nmake';5;2265
2267;'msbuild';5;2265
2268;'middleman';5;NULL
2269;'mingw';5;NULL
2270;'nant';5;NULL
2271;'phing';5;NULL
2272;'rake';5;NULL
2273;'rollup';5;NULL
2274;'sbt';5;NULL
2275;'scons';5;NULL
2276;'setuptools';5;NULL
2277;'sprockets';5;NULL
2278;'teamcity';5;NULL
2279;'travis ci';5;NULL
2280;'tsc';5;NULL
2281;'notion';6;NULL
2282;'devtrack';6;NULL
2283;'handsoft';6;NULL
2284;'pivotal tracker';6;NULL
2285;'elma';6;NULL
2286;'vsts';6;NULL
2287;'axosoft';6;NULL
2288;'ms project';6;NULL
2289;'trac';6;NULL
2290;'taiga';6;NULL
2291;'megaplan';6;NULL
2292;'targetprocess';6;NULL
2293;'epam pmc';6;NULL
2294;'bitrix24';6;NULL
2295;'netsuite';6;NULL
2296;'asana';6;NULL
2297;'glpi';6;NULL
2298;'basecamp';6;NULL
2299;'bugzilla';6;NULL
2300;'redbooth';6;NULL
2301;'confluence';6;NULL
2302;'kanban';6;NULL
2303;'helix alm';6;NULL
2304;'zendesk';6;NULL
2305;'mantis';6;NULL
2306;'rally';6;NULL
2307;'lighthouse';6;NULL
2308;'phabricator';6;NULL
2309;'pmc';6;NULL
2310;'otrs';6;NULL
2311;'jira';6;NULL
2312;'trello';6;NULL
2313;'naumen service desk';6;NULL
2314;'projectbench';6;NULL
2315;'fengoffice';6;NULL
2316;'redmine';6;NULL
2317;'youtrack';6;NULL
2318;'gitlab issues';6;NULL
2319;'vso';6;NULL
2320;'projectfork';6;NULL
2321;'zenhub';6;NULL
2322;'fogbugz';6;NULL
2323;'hp alm';6;NULL
2324;'ontime by axosoft';6;NULL
2325;'fastpool';6;NULL
2326;'manageit';6;NULL
2327;'worksection';6;NULL
2328;'gitbucket';6;NULL
2329;'github issues';6;NULL
2330;'favro';6;NULL
2331;'celoxis';6;NULL
2332;'monodevelop';7;NULL
2333;'oracle designer';7;NULL
2334;'powerdesigner';7;NULL
2335;'abap';7;NULL
2336;'abap editor';7;2335
2337;'abap workbench';7;2335
2338;'adobe';7;NULL
2339;'adobe flash builder';7;2338
2340;'adobe flash builder 4';7;2339
2341;'adobe dreamweaver';7;2339
2342;'adobe dreamweaver cs6';7;2341
2343;'altium designer';7;NULL
2344;'android studio';7;NULL
2345;'android studio 2.1';7;2344
2346;'appcode';7;NULL
2347;'aptana studio';7;NULL
2348;'atmel studio';7;NULL
2349;'atom';7;NULL
2350;'borland c++ builder';7;NULL
2351;'brackets';7;NULL
2352;'clion';7;NULL
2353;'code::blocks';7;NULL
2354;'codeblocks';7;2353
2355;'code composer studio';7;NULL
2356;'datagrip';7;NULL
2357;'dbforge';7;NULL
2358;'delphi';7;NULL
2359;'delphi 2';7;2358
2360;'delphi 3';7;2358
2361;'delphi 4';7;2358
2362;'delphi 5';7;2358
2363;'delphi 6';7;2358
2364;'delphi 7';7;2358
2365;'delphi 8';7;2358
2366;'delphi 2005';7;2358
2367;'delphi 2006';7;2358
2368;'delphi codegear';7;2358
2369;'delphi 2007';7;2358
2370;'delphi xe';7;2358
2371;'eclipse';7;NULL
2372;'embarcadero rad';7;NULL
2373;'erwin';7;NULL
2374;'bpwin';7;2373
2375;'flashdevelop';7;NULL
2376;'geany';7;NULL
2377;'goland';7;NULL
2378;'html db';7;NULL
2379;'iar';7;NULL
2380;'ibm';7;NULL
2381;'ibm rad';7;2380
2382;'ibm visualage';7;2380
2383;'idle';7;NULL
2384;'intel xdk';7;NULL
2385;'intellij idea';7;NULL
2386;'intellij idea 10.5';7;2385
2387;'intellij idea 2014';7;2385
2388;'intellij idea 2016';7;2385
2389;'jbuilder';7;NULL
2390;'jdeveloper';7;NULL
2391;'kicad';7;NULL
2392;'light table';7;NULL
2393;'microsoft expression blend';7;NULL
2394;'expression studio';7;NULL
2395;'sharepoint designer';7;NULL
2396;'morphx';7;NULL
2397;'netbeans';7;NULL
2398;'netbeans 7';7;2397
2399;'netbeans 8';7;2397
2400;'notepad++';7;NULL
2401;'nuclide';7;NULL
2402;'oracle forms';7;NULL
2403;'phpstorm';7;NULL
2404;'phpstorm 2016.2';7;2403
2405;'phped';7;NULL
2406;'phped 14';7;2405
2407;'pgadmin';7;NULL
2408;'pl\sql developer';7;NULL
2409;'powershell ise';7;NULL
2410;'pycharm';7;NULL
2411;'pycharm 3';7;2410
2412;'resharper';7;NULL
2413;'riatest';7;NULL
2414;'rider';7;NULL
2415;'rstudio';7;NULL
2416;'rubymine';7;NULL
2417;'sap nwds';7;NULL
2418;'selenium ide';7;NULL
2419;'sharpdevelop';7;NULL
2420;'sql developer';7;NULL
2421;'sql navigator';7;NULL
2422;'sublime text';7;NULL
2423;'sublime text 3';7;2422
2424;'toad';7;NULL
2425;'vi';7;NULL
2426;'vim';7;NULL
2427;'visual dsp++';7;NULL
2428;'visual studio';7;NULL
2429;'visual studio 2013';7;2428
2430;'visual studio 2003';7;2428
2431;'visual studio 2010';7;2428
2432;'visual studio code';7;NULL
2433;'webstorm';7;NULL
2434;'webstorm 7';7;2433
2435;'winavr';7;NULL
2436;'xamarin studio';7;NULL
2437;'xcode';7;NULL
2438;'xml publisher';7;NULL
2439;'zend studio';7;NULL
2440;'mercurial';8;NULL
2441;'svn';8;NULL
2442;'tortoise svn';8;2441
2443;'smartsvn';8;2441
2444;'ms vss';8;NULL
2445;'cvs';8;NULL
2446;'starteam';8;NULL
2447;'pvcs';8;NULL
2448;'tfvc';8;NULL
2449;'source depot';8;NULL
2450;'subversion';8;NULL
2451;'subclipse';8;2450
2452;'perforce helix';8;NULL
2453;'rational clearcase';8;NULL
2454;'git';8;NULL
2455;'git bash';8;2454
2456;'git extensions';8;2454
2457;'azure repos';8;2454
2458;'morphx vcs';8;NULL
2459;'let's encrypt';9;NULL
2460;'environment';9;NULL
2461;'network management';9;NULL
2462;'mod_wsgi';9;NULL
2463;'passenger';9;NULL
2464;'dhcp';9;NULL
2465;'profiling';9;NULL
2466;'iptables';9;NULL
2467;'djbdns';9;NULL
2468;'haproxy';9;NULL
2469;'grep';9;NULL
2470;'symantec';9;NULL
2471;'mysql replication';9;NULL
2472;'sql server';9;NULL
2473;'qmail';9;NULL
2474;'ruby via rvm';9;NULL
2475;'zfs';9;NULL
2476;'pf';9;NULL
2477;'lvm';9;NULL
2478;'zabbix';9;NULL
2479;'vranger';9;NULL
2480;'cyrus imap';9;NULL
2481;'php5-fpm';9;NULL
2482;'puppet';9;NULL
2483;'racoon';9;NULL
2484;'monit';9;NULL
2485;'samba';9;NULL
2486;'linux rhel';9;NULL
2487;'dns management';9;NULL
2488;'squid+sams';9;NULL
2489;'dkim';9;NULL
2490;'tail';9;NULL
2491;'dmarc';9;NULL
2492;'communigate pro';9;NULL
2493;'solarwinds';9;NULL
2494;'setup';9;NULL
2495;'mediawiki';9;NULL
2496;'nakivo';9;NULL
2497;'freebsd 6+';9;NULL
2498;'ipfw';9;NULL
2499;'glassfish';9;NULL
2500;'dovecot';9;NULL
2501;'nfs';9;NULL
2502;'linux debian';9;NULL
2503;'ahsay';9;NULL
2504;'spf';9;NULL
2505;'storegrid';9;NULL
2506;'no';9;NULL
2507;'squid';9;NULL
2508;'ca nimsoft';9;NULL
2509;'wsus';9;NULL
2510;'trendmicro antivirus';9;NULL
2511;'powershell scripting';9;NULL
2512;'sites';9;NULL
2513;'long term';9;NULL
2514;'gpodns';9;NULL
2515;'domain management';9;NULL
2516;'batch';9;NULL
2517;'2008 r2';9;NULL
2518;'ms sce 2010';9;NULL
2519;'ad';9;NULL
2520;'short term';9;NULL
2521;'ms scom 2010\2012';9;NULL
2522;'ms exchange';9;NULL
2523;'domain migration';9;NULL
2524;'kaspersky anti-virus';9;NULL
2525;'symantec antivirus';9;NULL
2526;'aad';9;NULL
2527;'windows 2012r2';9;NULL
2528;'vpn';9;NULL
2529;'windows 2016';9;NULL
2530;'decompression';9;NULL
2531;'mail';9;NULL
2532;'proxy';9;NULL
2533;'yes';9;NULL
2534;'veeamone';9;NULL
2535;'2012 r2';9;NULL
2536;'dns server';9;NULL
2537;'29xx';9;NULL
2538;'mvts';9;NULL
2539;'network engineering';9;NULL
2540;'3com';9;NULL
2541;'hp vsa';9;NULL
2542;'alliedtelesyn';9;NULL
2543;'sun';9;NULL
2544;'295x';9;NULL
2545;'juniper';9;NULL
2546;'netgear';9;NULL
2547;'servers hardware';9;NULL
2548;'routing';9;NULL
2549;'cisco as';9;NULL
2550;'ibm blade centers';9;NULL
2551;'dell md';9;NULL
2552;'supermicro';9;NULL
2553;'routers cisco';9;NULL